<?xml version="1.0" encoding="UTF-8" standalone="no"?>
<!-- Created with Inkscape (http://www.inkscape.org/) -->

<svg
   xmlns:dc="http://purl.org/dc/elements/1.1/"
   xmlns:cc="http://creativecommons.org/ns#"
   xmlns:rdf="http://www.w3.org/1999/02/22-rdf-syntax-ns#"
   xmlns:svg="http://www.w3.org/2000/svg"
   xmlns="http://www.w3.org/2000/svg"
   xmlns:sodipodi="http://sodipodi.sourceforge.net/DTD/sodipodi-0.dtd"
   xmlns:inkscape="http://www.inkscape.org/namespaces/inkscape"
   width="144.41687mm"
   height="229.44mm"
   viewBox="0 0 144.41687 229.44"
   version="1.1"
   id="svg34434"
   inkscape:version="0.92.1 r15371"
   sodipodi:docname="tecnica_awk.svg"
   inkscape:export-filename="/home/david/Proyectos/Presentaciones_CursoProgramacionOOCC/17_awk_scan_text_05/img/tecnica_awk.png"
   inkscape:export-xdpi="95"
   inkscape:export-ydpi="95">
  <defs
     id="defs34428" />
  <sodipodi:namedview
     id="base"
     pagecolor="#ffffff"
     bordercolor="#666666"
     borderopacity="1.0"
     inkscape:pageopacity="0.0"
     inkscape:pageshadow="2"
     inkscape:zoom="0.47341335"
     inkscape:cx="43.80513"
     inkscape:cy="433.82622"
     inkscape:document-units="mm"
     inkscape:current-layer="layer1"
     showgrid="false"
     fit-margin-right="-0.3"
     fit-margin-top="0"
     fit-margin-left="0"
     fit-margin-bottom="0"
     inkscape:window-width="1366"
     inkscape:window-height="709"
     inkscape:window-x="0"
     inkscape:window-y="0"
     inkscape:window-maximized="1" />
  <metadata
     id="metadata34431">
    <rdf:RDF>
      <cc:Work
         rdf:about="">
        <dc:format>image/svg+xml</dc:format>
        <dc:type
           rdf:resource="http://purl.org/dc/dcmitype/StillImage" />
        <dc:title />
      </cc:Work>
    </rdf:RDF>
  </metadata>
  <g
     inkscape:label="Capa 1"
     inkscape:groupmode="layer"
     id="layer1"
     transform="translate(-30.049107,-11.735555)">
    <text
       xml:space="preserve"
       style="font-style:normal;font-weight:normal;font-size:7.9580102px;line-height:1.25;font-family:sans-serif;letter-spacing:0px;word-spacing:0px;fill:#000000;fill-opacity:1;stroke:none;stroke-width:0.19895025"
       x="29.054356"
       y="18.100409"
       id="text34438"><tspan
         sodipodi:role="line"
         id="tspan34436"
         x="29.054356"
         y="18.100409"
         style="stroke-width:0.19895025">{Técnicas de Programación en AWK}</tspan></text>
    <circle
       style="opacity:0.628;fill:#fff67e;fill-opacity:1;stroke:none;stroke-width:0.49159041;stroke-miterlimit:4;stroke-dasharray:none;stroke-dashoffset:0;stroke-opacity:1"
       id="path34440"
       cx="99.506828"
       cy="52.01149"
       r="11.704534" />
    <text
       xml:space="preserve"
       style="font-style:normal;font-weight:normal;font-size:6.55453873px;line-height:1.25;font-family:sans-serif;letter-spacing:0px;word-spacing:0px;fill:#000000;fill-opacity:1;stroke:none;stroke-width:0.16386347"
       x="68.13868"
       y="54.118309"
       id="text34444"><tspan
         sodipodi:role="line"
         id="tspan34442"
         x="68.13868"
         y="54.118309"
         style="stroke-width:0.16386347">Inspeccionar el texto</tspan></text>
    <circle
       r="11.704534"
       cy="80.804634"
       cx="99.506828"
       id="circle34446"
       style="opacity:0.628;fill:#ffc67e;fill-opacity:1;stroke:none;stroke-width:0.49159041;stroke-miterlimit:4;stroke-dasharray:none;stroke-dashoffset:0;stroke-opacity:1" />
    <text
       id="text34450"
       y="82.911461"
       x="68.13868"
       style="font-style:normal;font-weight:normal;font-size:6.55453873px;line-height:1.25;font-family:sans-serif;letter-spacing:0px;word-spacing:0px;fill:#000000;fill-opacity:1;stroke:none;stroke-width:0.16386347"
       xml:space="preserve"><tspan
         style="stroke-width:0.16386347"
         y="82.911461"
         x="68.13868"
         id="tspan34448"
         sodipodi:role="line">Descubrir sus patrones</tspan></text>
    <circle
       style="opacity:0.628;fill:#ff8f7e;fill-opacity:1;stroke:none;stroke-width:0.49159041;stroke-miterlimit:4;stroke-dasharray:none;stroke-dashoffset:0;stroke-opacity:1"
       id="circle34452"
       cx="99.506828"
       cy="109.3637"
       r="11.704534" />
    <text
       xml:space="preserve"
       style="font-style:normal;font-weight:normal;font-size:6.55453873px;line-height:1.25;font-family:sans-serif;letter-spacing:0px;word-spacing:0px;fill:#000000;fill-opacity:1;stroke:none;stroke-width:0.16386347"
       x="68.13868"
       y="111.47053"
       id="text34456"><tspan
         sodipodi:role="line"
         id="tspan34454"
         x="68.13868"
         y="111.47053"
         style="stroke-width:0.16386347">¿Qué columnas utilizar?</tspan></text>
    <circle
       r="11.704534"
       cy="139.09323"
       cx="99.506828"
       id="circle34458"
       style="opacity:0.628;fill:#ff7ee5;fill-opacity:1;stroke:none;stroke-width:0.49159041;stroke-miterlimit:4;stroke-dasharray:none;stroke-dashoffset:0;stroke-opacity:1" />
    <text
       id="text34462"
       y="141.20004"
       x="58.538109"
       style="font-style:normal;font-weight:normal;font-size:6.55453873px;line-height:1.25;font-family:sans-serif;letter-spacing:0px;word-spacing:0px;fill:#000000;fill-opacity:1;stroke:none;stroke-width:0.16386347"
       xml:space="preserve"><tspan
         style="stroke-width:0.16386347"
         y="141.20004"
         x="58.538109"
         id="tspan34460"
         sodipodi:role="line">¿Necesito alguna función?</tspan></text>
    <circle
       style="opacity:0.628;fill:#977eff;fill-opacity:1;stroke:none;stroke-width:0.49159041;stroke-miterlimit:4;stroke-dasharray:none;stroke-dashoffset:0;stroke-opacity:1"
       id="circle34464"
       cx="99.506828"
       cy="169.5502"
       r="11.704534" />
    <text
       xml:space="preserve"
       style="font-style:normal;font-weight:normal;font-size:6.55453873px;line-height:1.25;font-family:sans-serif;letter-spacing:0px;word-spacing:0px;fill:#000000;fill-opacity:1;stroke:none;stroke-width:0.16386347"
       x="70.787117"
       y="171.65703"
       id="text34468"><tspan
         sodipodi:role="line"
         id="tspan34466"
         x="70.787117"
         y="171.65703"
         style="stroke-width:0.16386347">¿Existe en AWK?</tspan></text>
    <circle
       r="11.704534"
       cy="200.50377"
       cx="99.506828"
       id="circle34470"
       style="opacity:0.628;fill:#7ea5ff;fill-opacity:1;stroke:none;stroke-width:0.49159041;stroke-miterlimit:4;stroke-dasharray:none;stroke-dashoffset:0;stroke-opacity:1" />
    <text
       id="text34474"
       y="202.6106"
       x="73.1045"
       style="font-style:normal;font-weight:normal;font-size:6.55453873px;line-height:1.25;font-family:sans-serif;letter-spacing:0px;word-spacing:0px;fill:#000000;fill-opacity:1;stroke:none;stroke-width:0.16386347"
       xml:space="preserve"><tspan
         style="stroke-width:0.16386347"
         y="202.6106"
         x="73.1045"
         id="tspan34472"
         sodipodi:role="line">¿Puedo Crearla?</tspan></text>
    <circle
       style="opacity:0.628;fill:#7effdd;fill-opacity:1;stroke:none;stroke-width:0.49159041;stroke-miterlimit:4;stroke-dasharray:none;stroke-dashoffset:0;stroke-opacity:1"
       id="circle34476"
       cx="99.506828"
       cy="229.47102"
       r="11.704534" />
    <text
       xml:space="preserve"
       style="font-style:normal;font-weight:normal;font-size:6.55453873px;line-height:1.25;font-family:sans-serif;text-align:center;letter-spacing:0px;word-spacing:0px;text-anchor:middle;fill:#000000;fill-opacity:1;stroke:none;stroke-width:0.16386347"
       x="100.33943"
       y="228.26729"
       id="text34480"><tspan
         sodipodi:role="line"
         id="tspan34478"
         x="100.33943"
         y="228.26729"
         style="text-align:center;text-anchor:middle;stroke-width:0.16386347">¿Corro awk en la terminal o</tspan><tspan
         sodipodi:role="line"
         x="100.33943"
         y="236.46046"
         style="text-align:center;text-anchor:middle;stroke-width:0.16386347"
         id="tspan34482">creo un archivo?</tspan></text>
    <text
       id="text35029"
       y="29.86027"
       x="60.592159"
       style="font-style:normal;font-weight:normal;font-size:7.9580102px;line-height:1.25;font-family:sans-serif;letter-spacing:0px;word-spacing:0px;fill:#000000;fill-opacity:1;stroke:none;stroke-width:0.19895025"
       xml:space="preserve"><tspan
         style="stroke-width:0.19895025"
         y="29.86027"
         x="60.592159"
         id="tspan35027"
         sodipodi:role="line">{Pasos elementales}</tspan></text>
  </g>
</svg>
