<?xml version="1.0" encoding="UTF-8" standalone="no"?>
<!-- Created with Inkscape (http://www.inkscape.org/) -->

<svg
   xmlns:dc="http://purl.org/dc/elements/1.1/"
   xmlns:cc="http://creativecommons.org/ns#"
   xmlns:rdf="http://www.w3.org/1999/02/22-rdf-syntax-ns#"
   xmlns:svg="http://www.w3.org/2000/svg"
   xmlns="http://www.w3.org/2000/svg"
   xmlns:sodipodi="http://sodipodi.sourceforge.net/DTD/sodipodi-0.dtd"
   xmlns:inkscape="http://www.inkscape.org/namespaces/inkscape"
   width="297mm"
   height="210mm"
   viewBox="0 0 297 210"
   version="1.1"
   id="svg8"
   inkscape:version="0.92.4 (5da689c313, 2019-01-14)"
   sodipodi:docname="anatomia_grafico.svg">
  <defs
     id="defs2" />
  <sodipodi:namedview
     id="base"
     pagecolor="#ffffff"
     bordercolor="#666666"
     borderopacity="1.0"
     inkscape:pageopacity="0.0"
     inkscape:pageshadow="2"
     inkscape:zoom="0.90509668"
     inkscape:cx="911.29679"
     inkscape:cy="337.29423"
     inkscape:document-units="mm"
     inkscape:current-layer="layer1"
     showgrid="false"
     inkscape:window-width="1920"
     inkscape:window-height="1055"
     inkscape:window-x="1366"
     inkscape:window-y="0"
     inkscape:window-maximized="1"
     showguides="true"
     inkscape:guide-bbox="true">
    <sodipodi:guide
       position="74.104006,182.00439"
       orientation="1,0"
       id="guide4549"
       inkscape:locked="false" />
  </sodipodi:namedview>
  <metadata
     id="metadata5">
    <rdf:RDF>
      <cc:Work
         rdf:about="">
        <dc:format>image/svg+xml</dc:format>
        <dc:type
           rdf:resource="http://purl.org/dc/dcmitype/StillImage" />
        <dc:title></dc:title>
      </cc:Work>
    </rdf:RDF>
  </metadata>
  <g
     inkscape:label="Capa 1"
     inkscape:groupmode="layer"
     id="layer1"
     transform="translate(0,-87)">
    <rect
       id="rect3732"
       width="153.37566"
       height="153.37566"
       x="80.201828"
       y="113.44533"
       style="stroke-width:0.26458332;stroke:#414141;stroke-opacity:0.73631841;fill:none" />
    <text
       xml:space="preserve"
       style="font-style:normal;font-variant:normal;font-weight:normal;font-stretch:normal;font-size:10.58333302px;line-height:1.25;font-family:Amiri;-inkscape-font-specification:'Amiri, Normal';font-variant-ligatures:normal;font-variant-caps:normal;font-variant-numeric:normal;font-feature-settings:normal;text-align:start;letter-spacing:0px;word-spacing:0px;writing-mode:lr-tb;text-anchor:start;fill:#000000;fill-opacity:1;stroke:none;stroke-width:0.26458332"
       x="124.47303"
       y="107.65755"
       id="text4541"><tspan
         sodipodi:role="line"
         id="tspan4539"
         x="124.47303"
         y="107.65755"
         style="font-style:normal;font-variant:normal;font-weight:normal;font-stretch:normal;font-size:10.58333302px;font-family:Amiri;-inkscape-font-specification:'Amiri, Normal';font-variant-ligatures:normal;font-variant-caps:normal;font-variant-numeric:normal;font-feature-settings:normal;text-align:start;writing-mode:lr-tb;text-anchor:start;stroke-width:0.26458332">Medición de T°</tspan></text>
    <g
       id="g4731">
      <g
         transform="matrix(0.97457628,0,0,0.97457628,2.0390287,2.8741122)"
         id="g4575">
        <path
           style="fill:none;stroke:#000000;stroke-width:0.79374999;stroke-linecap:butt;stroke-linejoin:miter;stroke-miterlimit:4;stroke-dasharray:none;stroke-opacity:1"
           d="M 80.201827,113.44533 H 68.006184"
           id="path4545"
           inkscape:connector-curvature="0" />
        <path
           inkscape:connector-curvature="0"
           id="path4547"
           d="M 80.201827,117.25079 H 74.104006"
           style="fill:none;stroke:#000000;stroke-width:0.5291667;stroke-linecap:butt;stroke-linejoin:miter;stroke-miterlimit:4;stroke-dasharray:none;stroke-opacity:1"
           sodipodi:nodetypes="cc" />
        <path
           sodipodi:nodetypes="cc"
           style="fill:none;stroke:#000000;stroke-width:0.5291667;stroke-linecap:butt;stroke-linejoin:miter;stroke-miterlimit:4;stroke-dasharray:none;stroke-opacity:1"
           d="M 80.201827,121.18853 H 74.104006"
           id="path4551"
           inkscape:connector-curvature="0" />
        <path
           inkscape:connector-curvature="0"
           id="path4553"
           d="M 80.201827,125.12627 H 74.104006"
           style="fill:none;stroke:#000000;stroke-width:0.5291667;stroke-linecap:butt;stroke-linejoin:miter;stroke-miterlimit:4;stroke-dasharray:none;stroke-opacity:1"
           sodipodi:nodetypes="cc" />
        <path
           sodipodi:nodetypes="cc"
           style="fill:none;stroke:#000000;stroke-width:0.5291667;stroke-linecap:butt;stroke-linejoin:miter;stroke-miterlimit:4;stroke-dasharray:none;stroke-opacity:1"
           d="M 80.201827,129.06402 H 74.104006"
           id="path4555"
           inkscape:connector-curvature="0" />
        <path
           inkscape:connector-curvature="0"
           id="path4557"
           d="M 80.201827,133.13405 H 68.006184"
           style="fill:none;stroke:#000000;stroke-width:0.79374999;stroke-linecap:butt;stroke-linejoin:miter;stroke-miterlimit:4;stroke-dasharray:none;stroke-opacity:1" />
      </g>
      <g
         transform="matrix(0.97457628,0,0,0.97457628,2.0390287,22.062272)"
         id="g4589">
        <path
           inkscape:connector-curvature="0"
           id="path4577"
           d="M 80.201827,113.44533 H 68.006184"
           style="fill:none;stroke:#000000;stroke-width:0.79374999;stroke-linecap:butt;stroke-linejoin:miter;stroke-miterlimit:4;stroke-dasharray:none;stroke-opacity:1" />
        <path
           sodipodi:nodetypes="cc"
           style="fill:none;stroke:#000000;stroke-width:0.5291667;stroke-linecap:butt;stroke-linejoin:miter;stroke-miterlimit:4;stroke-dasharray:none;stroke-opacity:1"
           d="M 80.201827,117.25079 H 74.104006"
           id="path4579"
           inkscape:connector-curvature="0" />
        <path
           inkscape:connector-curvature="0"
           id="path4581"
           d="M 80.201827,121.18853 H 74.104006"
           style="fill:none;stroke:#000000;stroke-width:0.5291667;stroke-linecap:butt;stroke-linejoin:miter;stroke-miterlimit:4;stroke-dasharray:none;stroke-opacity:1"
           sodipodi:nodetypes="cc" />
        <path
           sodipodi:nodetypes="cc"
           style="fill:none;stroke:#000000;stroke-width:0.5291667;stroke-linecap:butt;stroke-linejoin:miter;stroke-miterlimit:4;stroke-dasharray:none;stroke-opacity:1"
           d="M 80.201827,125.12627 H 74.104006"
           id="path4583"
           inkscape:connector-curvature="0" />
        <path
           inkscape:connector-curvature="0"
           id="path4585"
           d="M 80.201827,129.06402 H 74.104006"
           style="fill:none;stroke:#000000;stroke-width:0.5291667;stroke-linecap:butt;stroke-linejoin:miter;stroke-miterlimit:4;stroke-dasharray:none;stroke-opacity:1"
           sodipodi:nodetypes="cc" />
        <path
           style="fill:none;stroke:#000000;stroke-width:0.79374999;stroke-linecap:butt;stroke-linejoin:miter;stroke-miterlimit:4;stroke-dasharray:none;stroke-opacity:1"
           d="M 80.201827,133.13405 H 68.006184"
           id="path4587"
           inkscape:connector-curvature="0" />
      </g>
      <g
         id="g4603"
         transform="matrix(0.97457628,0,0,0.97457628,2.0390287,41.250431)">
        <path
           style="fill:none;stroke:#000000;stroke-width:0.79374999;stroke-linecap:butt;stroke-linejoin:miter;stroke-miterlimit:4;stroke-dasharray:none;stroke-opacity:1"
           d="M 80.201827,113.44533 H 68.006184"
           id="path4591"
           inkscape:connector-curvature="0" />
        <path
           inkscape:connector-curvature="0"
           id="path4593"
           d="M 80.201827,117.25079 H 74.104006"
           style="fill:none;stroke:#000000;stroke-width:0.5291667;stroke-linecap:butt;stroke-linejoin:miter;stroke-miterlimit:4;stroke-dasharray:none;stroke-opacity:1"
           sodipodi:nodetypes="cc" />
        <path
           sodipodi:nodetypes="cc"
           style="fill:none;stroke:#000000;stroke-width:0.5291667;stroke-linecap:butt;stroke-linejoin:miter;stroke-miterlimit:4;stroke-dasharray:none;stroke-opacity:1"
           d="M 80.201827,121.18853 H 74.104006"
           id="path4595"
           inkscape:connector-curvature="0" />
        <path
           inkscape:connector-curvature="0"
           id="path4597"
           d="M 80.201827,125.12627 H 74.104006"
           style="fill:none;stroke:#000000;stroke-width:0.5291667;stroke-linecap:butt;stroke-linejoin:miter;stroke-miterlimit:4;stroke-dasharray:none;stroke-opacity:1"
           sodipodi:nodetypes="cc" />
        <path
           sodipodi:nodetypes="cc"
           style="fill:none;stroke:#000000;stroke-width:0.5291667;stroke-linecap:butt;stroke-linejoin:miter;stroke-miterlimit:4;stroke-dasharray:none;stroke-opacity:1"
           d="M 80.201827,129.06402 H 74.104006"
           id="path4599"
           inkscape:connector-curvature="0" />
        <path
           inkscape:connector-curvature="0"
           id="path4601"
           d="M 80.201827,133.13405 H 68.006184"
           style="fill:none;stroke:#000000;stroke-width:0.79374999;stroke-linecap:butt;stroke-linejoin:miter;stroke-miterlimit:4;stroke-dasharray:none;stroke-opacity:1" />
      </g>
      <g
         transform="matrix(0.97457628,0,0,0.97457628,2.0390287,60.438591)"
         id="g4617">
        <path
           inkscape:connector-curvature="0"
           id="path4605"
           d="M 80.201827,113.44533 H 68.006184"
           style="fill:none;stroke:#000000;stroke-width:0.79374999;stroke-linecap:butt;stroke-linejoin:miter;stroke-miterlimit:4;stroke-dasharray:none;stroke-opacity:1" />
        <path
           sodipodi:nodetypes="cc"
           style="fill:none;stroke:#000000;stroke-width:0.5291667;stroke-linecap:butt;stroke-linejoin:miter;stroke-miterlimit:4;stroke-dasharray:none;stroke-opacity:1"
           d="M 80.201827,117.25079 H 74.104006"
           id="path4607"
           inkscape:connector-curvature="0" />
        <path
           inkscape:connector-curvature="0"
           id="path4609"
           d="M 80.201827,121.18853 H 74.104006"
           style="fill:none;stroke:#000000;stroke-width:0.5291667;stroke-linecap:butt;stroke-linejoin:miter;stroke-miterlimit:4;stroke-dasharray:none;stroke-opacity:1"
           sodipodi:nodetypes="cc" />
        <path
           sodipodi:nodetypes="cc"
           style="fill:none;stroke:#000000;stroke-width:0.5291667;stroke-linecap:butt;stroke-linejoin:miter;stroke-miterlimit:4;stroke-dasharray:none;stroke-opacity:1"
           d="M 80.201827,125.12627 H 74.104006"
           id="path4611"
           inkscape:connector-curvature="0" />
        <path
           inkscape:connector-curvature="0"
           id="path4613"
           d="M 80.201827,129.06402 H 74.104006"
           style="fill:none;stroke:#000000;stroke-width:0.5291667;stroke-linecap:butt;stroke-linejoin:miter;stroke-miterlimit:4;stroke-dasharray:none;stroke-opacity:1"
           sodipodi:nodetypes="cc" />
        <path
           style="fill:none;stroke:#000000;stroke-width:0.79374999;stroke-linecap:butt;stroke-linejoin:miter;stroke-miterlimit:4;stroke-dasharray:none;stroke-opacity:1"
           d="M 80.201827,133.13405 H 68.006184"
           id="path4615"
           inkscape:connector-curvature="0" />
      </g>
      <g
         id="g4631"
         transform="matrix(0.97457628,0,0,0.97457628,2.0390287,79.62675)">
        <path
           style="fill:none;stroke:#000000;stroke-width:0.79374999;stroke-linecap:butt;stroke-linejoin:miter;stroke-miterlimit:4;stroke-dasharray:none;stroke-opacity:1"
           d="M 80.201827,113.44533 H 68.006184"
           id="path4619"
           inkscape:connector-curvature="0" />
        <path
           inkscape:connector-curvature="0"
           id="path4621"
           d="M 80.201827,117.25079 H 74.104006"
           style="fill:none;stroke:#000000;stroke-width:0.5291667;stroke-linecap:butt;stroke-linejoin:miter;stroke-miterlimit:4;stroke-dasharray:none;stroke-opacity:1"
           sodipodi:nodetypes="cc" />
        <path
           sodipodi:nodetypes="cc"
           style="fill:none;stroke:#000000;stroke-width:0.5291667;stroke-linecap:butt;stroke-linejoin:miter;stroke-miterlimit:4;stroke-dasharray:none;stroke-opacity:1"
           d="M 80.201827,121.18853 H 74.104006"
           id="path4623"
           inkscape:connector-curvature="0" />
        <path
           inkscape:connector-curvature="0"
           id="path4625"
           d="M 80.201827,125.12627 H 74.104006"
           style="fill:none;stroke:#000000;stroke-width:0.5291667;stroke-linecap:butt;stroke-linejoin:miter;stroke-miterlimit:4;stroke-dasharray:none;stroke-opacity:1"
           sodipodi:nodetypes="cc" />
        <path
           sodipodi:nodetypes="cc"
           style="fill:none;stroke:#000000;stroke-width:0.5291667;stroke-linecap:butt;stroke-linejoin:miter;stroke-miterlimit:4;stroke-dasharray:none;stroke-opacity:1"
           d="M 80.201827,129.06402 H 74.104006"
           id="path4627"
           inkscape:connector-curvature="0" />
        <path
           inkscape:connector-curvature="0"
           id="path4629"
           d="M 80.201827,133.13405 H 68.006184"
           style="fill:none;stroke:#000000;stroke-width:0.79374999;stroke-linecap:butt;stroke-linejoin:miter;stroke-miterlimit:4;stroke-dasharray:none;stroke-opacity:1" />
      </g>
      <g
         transform="matrix(0.97457628,0,0,0.97457628,2.0390287,98.81491)"
         id="g4645">
        <path
           inkscape:connector-curvature="0"
           id="path4633"
           d="M 80.201827,113.44533 H 68.006184"
           style="fill:none;stroke:#000000;stroke-width:0.79374999;stroke-linecap:butt;stroke-linejoin:miter;stroke-miterlimit:4;stroke-dasharray:none;stroke-opacity:1" />
        <path
           sodipodi:nodetypes="cc"
           style="fill:none;stroke:#000000;stroke-width:0.5291667;stroke-linecap:butt;stroke-linejoin:miter;stroke-miterlimit:4;stroke-dasharray:none;stroke-opacity:1"
           d="M 80.201827,117.25079 H 74.104006"
           id="path4635"
           inkscape:connector-curvature="0" />
        <path
           inkscape:connector-curvature="0"
           id="path4637"
           d="M 80.201827,121.18853 H 74.104006"
           style="fill:none;stroke:#000000;stroke-width:0.5291667;stroke-linecap:butt;stroke-linejoin:miter;stroke-miterlimit:4;stroke-dasharray:none;stroke-opacity:1"
           sodipodi:nodetypes="cc" />
        <path
           sodipodi:nodetypes="cc"
           style="fill:none;stroke:#000000;stroke-width:0.5291667;stroke-linecap:butt;stroke-linejoin:miter;stroke-miterlimit:4;stroke-dasharray:none;stroke-opacity:1"
           d="M 80.201827,125.12627 H 74.104006"
           id="path4639"
           inkscape:connector-curvature="0" />
        <path
           inkscape:connector-curvature="0"
           id="path4641"
           d="M 80.201827,129.06402 H 74.104006"
           style="fill:none;stroke:#000000;stroke-width:0.5291667;stroke-linecap:butt;stroke-linejoin:miter;stroke-miterlimit:4;stroke-dasharray:none;stroke-opacity:1"
           sodipodi:nodetypes="cc" />
        <path
           style="fill:none;stroke:#000000;stroke-width:0.79374999;stroke-linecap:butt;stroke-linejoin:miter;stroke-miterlimit:4;stroke-dasharray:none;stroke-opacity:1"
           d="M 80.201827,133.13405 H 68.006184"
           id="path4643"
           inkscape:connector-curvature="0" />
      </g>
      <g
         id="g4659"
         transform="matrix(0.97457628,0,0,0.97457628,2.0390287,118.00307)">
        <path
           style="fill:none;stroke:#000000;stroke-width:0.79374999;stroke-linecap:butt;stroke-linejoin:miter;stroke-miterlimit:4;stroke-dasharray:none;stroke-opacity:1"
           d="M 80.201827,113.44533 H 68.006184"
           id="path4647"
           inkscape:connector-curvature="0" />
        <path
           inkscape:connector-curvature="0"
           id="path4649"
           d="M 80.201827,117.25079 H 74.104006"
           style="fill:none;stroke:#000000;stroke-width:0.5291667;stroke-linecap:butt;stroke-linejoin:miter;stroke-miterlimit:4;stroke-dasharray:none;stroke-opacity:1"
           sodipodi:nodetypes="cc" />
        <path
           sodipodi:nodetypes="cc"
           style="fill:none;stroke:#000000;stroke-width:0.5291667;stroke-linecap:butt;stroke-linejoin:miter;stroke-miterlimit:4;stroke-dasharray:none;stroke-opacity:1"
           d="M 80.201827,121.18853 H 74.104006"
           id="path4651"
           inkscape:connector-curvature="0" />
        <path
           inkscape:connector-curvature="0"
           id="path4653"
           d="M 80.201827,125.12627 H 74.104006"
           style="fill:none;stroke:#000000;stroke-width:0.5291667;stroke-linecap:butt;stroke-linejoin:miter;stroke-miterlimit:4;stroke-dasharray:none;stroke-opacity:1"
           sodipodi:nodetypes="cc" />
        <path
           sodipodi:nodetypes="cc"
           style="fill:none;stroke:#000000;stroke-width:0.5291667;stroke-linecap:butt;stroke-linejoin:miter;stroke-miterlimit:4;stroke-dasharray:none;stroke-opacity:1"
           d="M 80.201827,129.06402 H 74.104006"
           id="path4655"
           inkscape:connector-curvature="0" />
        <path
           inkscape:connector-curvature="0"
           id="path4657"
           d="M 80.201827,133.13405 H 68.006184"
           style="fill:none;stroke:#000000;stroke-width:0.79374999;stroke-linecap:butt;stroke-linejoin:miter;stroke-miterlimit:4;stroke-dasharray:none;stroke-opacity:1" />
      </g>
      <g
         transform="matrix(0.97457628,0,0,0.97457628,2.0390287,137.19123)"
         id="g4673">
        <path
           inkscape:connector-curvature="0"
           id="path4661"
           d="M 80.201827,113.44533 H 68.006184"
           style="fill:none;stroke:#000000;stroke-width:0.79374999;stroke-linecap:butt;stroke-linejoin:miter;stroke-miterlimit:4;stroke-dasharray:none;stroke-opacity:1" />
        <path
           sodipodi:nodetypes="cc"
           style="fill:none;stroke:#000000;stroke-width:0.5291667;stroke-linecap:butt;stroke-linejoin:miter;stroke-miterlimit:4;stroke-dasharray:none;stroke-opacity:1"
           d="M 80.201827,117.25079 H 74.104006"
           id="path4663"
           inkscape:connector-curvature="0" />
        <path
           inkscape:connector-curvature="0"
           id="path4665"
           d="M 80.201827,121.18853 H 74.104006"
           style="fill:none;stroke:#000000;stroke-width:0.5291667;stroke-linecap:butt;stroke-linejoin:miter;stroke-miterlimit:4;stroke-dasharray:none;stroke-opacity:1"
           sodipodi:nodetypes="cc" />
        <path
           sodipodi:nodetypes="cc"
           style="fill:none;stroke:#000000;stroke-width:0.5291667;stroke-linecap:butt;stroke-linejoin:miter;stroke-miterlimit:4;stroke-dasharray:none;stroke-opacity:1"
           d="M 80.201827,125.12627 H 74.104006"
           id="path4667"
           inkscape:connector-curvature="0" />
        <path
           inkscape:connector-curvature="0"
           id="path4669"
           d="M 80.201827,129.06402 H 74.104006"
           style="fill:none;stroke:#000000;stroke-width:0.5291667;stroke-linecap:butt;stroke-linejoin:miter;stroke-miterlimit:4;stroke-dasharray:none;stroke-opacity:1"
           sodipodi:nodetypes="cc" />
        <path
           style="fill:none;stroke:#000000;stroke-width:0.79374999;stroke-linecap:butt;stroke-linejoin:miter;stroke-miterlimit:4;stroke-dasharray:none;stroke-opacity:1"
           d="M 80.201827,133.13405 H 68.006184"
           id="path4671"
           inkscape:connector-curvature="0" />
      </g>
    </g>
    <g
       id="g4845"
       transform="rotate(-90,156.82989,190.19292)">
      <g
         id="g4745"
         transform="matrix(0.97457628,0,0,0.97457628,2.0390287,2.8741122)">
        <path
           inkscape:connector-curvature="0"
           id="path4733"
           d="M 80.201827,113.44533 H 68.006184"
           style="fill:none;stroke:#000000;stroke-width:0.79374999;stroke-linecap:butt;stroke-linejoin:miter;stroke-miterlimit:4;stroke-dasharray:none;stroke-opacity:1" />
        <path
           sodipodi:nodetypes="cc"
           style="fill:none;stroke:#000000;stroke-width:0.5291667;stroke-linecap:butt;stroke-linejoin:miter;stroke-miterlimit:4;stroke-dasharray:none;stroke-opacity:1"
           d="M 80.201827,117.25079 H 74.104006"
           id="path4735"
           inkscape:connector-curvature="0" />
        <path
           inkscape:connector-curvature="0"
           id="path4737"
           d="M 80.201827,121.18853 H 74.104006"
           style="fill:none;stroke:#000000;stroke-width:0.5291667;stroke-linecap:butt;stroke-linejoin:miter;stroke-miterlimit:4;stroke-dasharray:none;stroke-opacity:1"
           sodipodi:nodetypes="cc" />
        <path
           sodipodi:nodetypes="cc"
           style="fill:none;stroke:#000000;stroke-width:0.5291667;stroke-linecap:butt;stroke-linejoin:miter;stroke-miterlimit:4;stroke-dasharray:none;stroke-opacity:1"
           d="M 80.201827,125.12627 H 74.104006"
           id="path4739"
           inkscape:connector-curvature="0" />
        <path
           inkscape:connector-curvature="0"
           id="path4741"
           d="M 80.201827,129.06402 H 74.104006"
           style="fill:none;stroke:#000000;stroke-width:0.5291667;stroke-linecap:butt;stroke-linejoin:miter;stroke-miterlimit:4;stroke-dasharray:none;stroke-opacity:1"
           sodipodi:nodetypes="cc" />
        <path
           style="fill:none;stroke:#000000;stroke-width:0.79374999;stroke-linecap:butt;stroke-linejoin:miter;stroke-miterlimit:4;stroke-dasharray:none;stroke-opacity:1"
           d="M 80.201827,133.13405 H 68.006184"
           id="path4743"
           inkscape:connector-curvature="0" />
      </g>
      <g
         id="g4759"
         transform="matrix(0.97457628,0,0,0.97457628,2.0390287,22.062272)">
        <path
           style="fill:none;stroke:#000000;stroke-width:0.79374999;stroke-linecap:butt;stroke-linejoin:miter;stroke-miterlimit:4;stroke-dasharray:none;stroke-opacity:1"
           d="M 80.201827,113.44533 H 68.006184"
           id="path4747"
           inkscape:connector-curvature="0" />
        <path
           inkscape:connector-curvature="0"
           id="path4749"
           d="M 80.201827,117.25079 H 74.104006"
           style="fill:none;stroke:#000000;stroke-width:0.5291667;stroke-linecap:butt;stroke-linejoin:miter;stroke-miterlimit:4;stroke-dasharray:none;stroke-opacity:1"
           sodipodi:nodetypes="cc" />
        <path
           sodipodi:nodetypes="cc"
           style="fill:none;stroke:#000000;stroke-width:0.5291667;stroke-linecap:butt;stroke-linejoin:miter;stroke-miterlimit:4;stroke-dasharray:none;stroke-opacity:1"
           d="M 80.201827,121.18853 H 74.104006"
           id="path4751"
           inkscape:connector-curvature="0" />
        <path
           inkscape:connector-curvature="0"
           id="path4753"
           d="M 80.201827,125.12627 H 74.104006"
           style="fill:none;stroke:#000000;stroke-width:0.5291667;stroke-linecap:butt;stroke-linejoin:miter;stroke-miterlimit:4;stroke-dasharray:none;stroke-opacity:1"
           sodipodi:nodetypes="cc" />
        <path
           sodipodi:nodetypes="cc"
           style="fill:none;stroke:#000000;stroke-width:0.5291667;stroke-linecap:butt;stroke-linejoin:miter;stroke-miterlimit:4;stroke-dasharray:none;stroke-opacity:1"
           d="M 80.201827,129.06402 H 74.104006"
           id="path4755"
           inkscape:connector-curvature="0" />
        <path
           inkscape:connector-curvature="0"
           id="path4757"
           d="M 80.201827,133.13405 H 68.006184"
           style="fill:none;stroke:#000000;stroke-width:0.79374999;stroke-linecap:butt;stroke-linejoin:miter;stroke-miterlimit:4;stroke-dasharray:none;stroke-opacity:1" />
      </g>
      <g
         transform="matrix(0.97457628,0,0,0.97457628,2.0390287,41.250431)"
         id="g4773">
        <path
           inkscape:connector-curvature="0"
           id="path4761"
           d="M 80.201827,113.44533 H 68.006184"
           style="fill:none;stroke:#000000;stroke-width:0.79374999;stroke-linecap:butt;stroke-linejoin:miter;stroke-miterlimit:4;stroke-dasharray:none;stroke-opacity:1" />
        <path
           sodipodi:nodetypes="cc"
           style="fill:none;stroke:#000000;stroke-width:0.5291667;stroke-linecap:butt;stroke-linejoin:miter;stroke-miterlimit:4;stroke-dasharray:none;stroke-opacity:1"
           d="M 80.201827,117.25079 H 74.104006"
           id="path4763"
           inkscape:connector-curvature="0" />
        <path
           inkscape:connector-curvature="0"
           id="path4765"
           d="M 80.201827,121.18853 H 74.104006"
           style="fill:none;stroke:#000000;stroke-width:0.5291667;stroke-linecap:butt;stroke-linejoin:miter;stroke-miterlimit:4;stroke-dasharray:none;stroke-opacity:1"
           sodipodi:nodetypes="cc" />
        <path
           sodipodi:nodetypes="cc"
           style="fill:none;stroke:#000000;stroke-width:0.5291667;stroke-linecap:butt;stroke-linejoin:miter;stroke-miterlimit:4;stroke-dasharray:none;stroke-opacity:1"
           d="M 80.201827,125.12627 H 74.104006"
           id="path4767"
           inkscape:connector-curvature="0" />
        <path
           inkscape:connector-curvature="0"
           id="path4769"
           d="M 80.201827,129.06402 H 74.104006"
           style="fill:none;stroke:#000000;stroke-width:0.5291667;stroke-linecap:butt;stroke-linejoin:miter;stroke-miterlimit:4;stroke-dasharray:none;stroke-opacity:1"
           sodipodi:nodetypes="cc" />
        <path
           style="fill:none;stroke:#000000;stroke-width:0.79374999;stroke-linecap:butt;stroke-linejoin:miter;stroke-miterlimit:4;stroke-dasharray:none;stroke-opacity:1"
           d="M 80.201827,133.13405 H 68.006184"
           id="path4771"
           inkscape:connector-curvature="0" />
      </g>
      <g
         id="g4787"
         transform="matrix(0.97457628,0,0,0.97457628,2.0390287,60.438591)">
        <path
           style="fill:none;stroke:#000000;stroke-width:0.79374999;stroke-linecap:butt;stroke-linejoin:miter;stroke-miterlimit:4;stroke-dasharray:none;stroke-opacity:1"
           d="M 80.201827,113.44533 H 68.006184"
           id="path4775"
           inkscape:connector-curvature="0" />
        <path
           inkscape:connector-curvature="0"
           id="path4777"
           d="M 80.201827,117.25079 H 74.104006"
           style="fill:none;stroke:#000000;stroke-width:0.5291667;stroke-linecap:butt;stroke-linejoin:miter;stroke-miterlimit:4;stroke-dasharray:none;stroke-opacity:1"
           sodipodi:nodetypes="cc" />
        <path
           sodipodi:nodetypes="cc"
           style="fill:none;stroke:#000000;stroke-width:0.5291667;stroke-linecap:butt;stroke-linejoin:miter;stroke-miterlimit:4;stroke-dasharray:none;stroke-opacity:1"
           d="M 80.201827,121.18853 H 74.104006"
           id="path4779"
           inkscape:connector-curvature="0" />
        <path
           inkscape:connector-curvature="0"
           id="path4781"
           d="M 80.201827,125.12627 H 74.104006"
           style="fill:none;stroke:#000000;stroke-width:0.5291667;stroke-linecap:butt;stroke-linejoin:miter;stroke-miterlimit:4;stroke-dasharray:none;stroke-opacity:1"
           sodipodi:nodetypes="cc" />
        <path
           sodipodi:nodetypes="cc"
           style="fill:none;stroke:#000000;stroke-width:0.5291667;stroke-linecap:butt;stroke-linejoin:miter;stroke-miterlimit:4;stroke-dasharray:none;stroke-opacity:1"
           d="M 80.201827,129.06402 H 74.104006"
           id="path4783"
           inkscape:connector-curvature="0" />
        <path
           inkscape:connector-curvature="0"
           id="path4785"
           d="M 80.201827,133.13405 H 68.006184"
           style="fill:none;stroke:#000000;stroke-width:0.79374999;stroke-linecap:butt;stroke-linejoin:miter;stroke-miterlimit:4;stroke-dasharray:none;stroke-opacity:1" />
      </g>
      <g
         transform="matrix(0.97457628,0,0,0.97457628,2.0390287,79.62675)"
         id="g4801">
        <path
           inkscape:connector-curvature="0"
           id="path4789"
           d="M 80.201827,113.44533 H 68.006184"
           style="fill:none;stroke:#000000;stroke-width:0.79374999;stroke-linecap:butt;stroke-linejoin:miter;stroke-miterlimit:4;stroke-dasharray:none;stroke-opacity:1" />
        <path
           sodipodi:nodetypes="cc"
           style="fill:none;stroke:#000000;stroke-width:0.5291667;stroke-linecap:butt;stroke-linejoin:miter;stroke-miterlimit:4;stroke-dasharray:none;stroke-opacity:1"
           d="M 80.201827,117.25079 H 74.104006"
           id="path4791"
           inkscape:connector-curvature="0" />
        <path
           inkscape:connector-curvature="0"
           id="path4793"
           d="M 80.201827,121.18853 H 74.104006"
           style="fill:none;stroke:#000000;stroke-width:0.5291667;stroke-linecap:butt;stroke-linejoin:miter;stroke-miterlimit:4;stroke-dasharray:none;stroke-opacity:1"
           sodipodi:nodetypes="cc" />
        <path
           sodipodi:nodetypes="cc"
           style="fill:none;stroke:#000000;stroke-width:0.5291667;stroke-linecap:butt;stroke-linejoin:miter;stroke-miterlimit:4;stroke-dasharray:none;stroke-opacity:1"
           d="M 80.201827,125.12627 H 74.104006"
           id="path4795"
           inkscape:connector-curvature="0" />
        <path
           inkscape:connector-curvature="0"
           id="path4797"
           d="M 80.201827,129.06402 H 74.104006"
           style="fill:none;stroke:#000000;stroke-width:0.5291667;stroke-linecap:butt;stroke-linejoin:miter;stroke-miterlimit:4;stroke-dasharray:none;stroke-opacity:1"
           sodipodi:nodetypes="cc" />
        <path
           style="fill:none;stroke:#000000;stroke-width:0.79374999;stroke-linecap:butt;stroke-linejoin:miter;stroke-miterlimit:4;stroke-dasharray:none;stroke-opacity:1"
           d="M 80.201827,133.13405 H 68.006184"
           id="path4799"
           inkscape:connector-curvature="0" />
      </g>
      <g
         id="g4815"
         transform="matrix(0.97457628,0,0,0.97457628,2.0390287,98.81491)">
        <path
           style="fill:none;stroke:#000000;stroke-width:0.79374999;stroke-linecap:butt;stroke-linejoin:miter;stroke-miterlimit:4;stroke-dasharray:none;stroke-opacity:1"
           d="M 80.201827,113.44533 H 68.006184"
           id="path4803"
           inkscape:connector-curvature="0" />
        <path
           inkscape:connector-curvature="0"
           id="path4805"
           d="M 80.201827,117.25079 H 74.104006"
           style="fill:none;stroke:#000000;stroke-width:0.5291667;stroke-linecap:butt;stroke-linejoin:miter;stroke-miterlimit:4;stroke-dasharray:none;stroke-opacity:1"
           sodipodi:nodetypes="cc" />
        <path
           sodipodi:nodetypes="cc"
           style="fill:none;stroke:#000000;stroke-width:0.5291667;stroke-linecap:butt;stroke-linejoin:miter;stroke-miterlimit:4;stroke-dasharray:none;stroke-opacity:1"
           d="M 80.201827,121.18853 H 74.104006"
           id="path4807"
           inkscape:connector-curvature="0" />
        <path
           inkscape:connector-curvature="0"
           id="path4809"
           d="M 80.201827,125.12627 H 74.104006"
           style="fill:none;stroke:#000000;stroke-width:0.5291667;stroke-linecap:butt;stroke-linejoin:miter;stroke-miterlimit:4;stroke-dasharray:none;stroke-opacity:1"
           sodipodi:nodetypes="cc" />
        <path
           sodipodi:nodetypes="cc"
           style="fill:none;stroke:#000000;stroke-width:0.5291667;stroke-linecap:butt;stroke-linejoin:miter;stroke-miterlimit:4;stroke-dasharray:none;stroke-opacity:1"
           d="M 80.201827,129.06402 H 74.104006"
           id="path4811"
           inkscape:connector-curvature="0" />
        <path
           inkscape:connector-curvature="0"
           id="path4813"
           d="M 80.201827,133.13405 H 68.006184"
           style="fill:none;stroke:#000000;stroke-width:0.79374999;stroke-linecap:butt;stroke-linejoin:miter;stroke-miterlimit:4;stroke-dasharray:none;stroke-opacity:1" />
      </g>
      <g
         transform="matrix(0.97457628,0,0,0.97457628,2.0390287,118.00307)"
         id="g4829">
        <path
           inkscape:connector-curvature="0"
           id="path4817"
           d="M 80.201827,113.44533 H 68.006184"
           style="fill:none;stroke:#000000;stroke-width:0.79374999;stroke-linecap:butt;stroke-linejoin:miter;stroke-miterlimit:4;stroke-dasharray:none;stroke-opacity:1" />
        <path
           sodipodi:nodetypes="cc"
           style="fill:none;stroke:#000000;stroke-width:0.5291667;stroke-linecap:butt;stroke-linejoin:miter;stroke-miterlimit:4;stroke-dasharray:none;stroke-opacity:1"
           d="M 80.201827,117.25079 H 74.104006"
           id="path4819"
           inkscape:connector-curvature="0" />
        <path
           inkscape:connector-curvature="0"
           id="path4821"
           d="M 80.201827,121.18853 H 74.104006"
           style="fill:none;stroke:#000000;stroke-width:0.5291667;stroke-linecap:butt;stroke-linejoin:miter;stroke-miterlimit:4;stroke-dasharray:none;stroke-opacity:1"
           sodipodi:nodetypes="cc" />
        <path
           sodipodi:nodetypes="cc"
           style="fill:none;stroke:#000000;stroke-width:0.5291667;stroke-linecap:butt;stroke-linejoin:miter;stroke-miterlimit:4;stroke-dasharray:none;stroke-opacity:1"
           d="M 80.201827,125.12627 H 74.104006"
           id="path4823"
           inkscape:connector-curvature="0" />
        <path
           inkscape:connector-curvature="0"
           id="path4825"
           d="M 80.201827,129.06402 H 74.104006"
           style="fill:none;stroke:#000000;stroke-width:0.5291667;stroke-linecap:butt;stroke-linejoin:miter;stroke-miterlimit:4;stroke-dasharray:none;stroke-opacity:1"
           sodipodi:nodetypes="cc" />
        <path
           style="fill:none;stroke:#000000;stroke-width:0.79374999;stroke-linecap:butt;stroke-linejoin:miter;stroke-miterlimit:4;stroke-dasharray:none;stroke-opacity:1"
           d="M 80.201827,133.13405 H 68.006184"
           id="path4827"
           inkscape:connector-curvature="0" />
      </g>
      <g
         id="g4843"
         transform="matrix(0.97457628,0,0,0.97457628,2.0390287,137.19123)">
        <path
           style="fill:none;stroke:#000000;stroke-width:0.79374999;stroke-linecap:butt;stroke-linejoin:miter;stroke-miterlimit:4;stroke-dasharray:none;stroke-opacity:1"
           d="M 80.201827,113.44533 H 68.006184"
           id="path4831"
           inkscape:connector-curvature="0" />
        <path
           inkscape:connector-curvature="0"
           id="path4833"
           d="M 80.201827,117.25079 H 74.104006"
           style="fill:none;stroke:#000000;stroke-width:0.5291667;stroke-linecap:butt;stroke-linejoin:miter;stroke-miterlimit:4;stroke-dasharray:none;stroke-opacity:1"
           sodipodi:nodetypes="cc" />
        <path
           sodipodi:nodetypes="cc"
           style="fill:none;stroke:#000000;stroke-width:0.5291667;stroke-linecap:butt;stroke-linejoin:miter;stroke-miterlimit:4;stroke-dasharray:none;stroke-opacity:1"
           d="M 80.201827,121.18853 H 74.104006"
           id="path4835"
           inkscape:connector-curvature="0" />
        <path
           inkscape:connector-curvature="0"
           id="path4837"
           d="M 80.201827,125.12627 H 74.104006"
           style="fill:none;stroke:#000000;stroke-width:0.5291667;stroke-linecap:butt;stroke-linejoin:miter;stroke-miterlimit:4;stroke-dasharray:none;stroke-opacity:1"
           sodipodi:nodetypes="cc" />
        <path
           sodipodi:nodetypes="cc"
           style="fill:none;stroke:#000000;stroke-width:0.5291667;stroke-linecap:butt;stroke-linejoin:miter;stroke-miterlimit:4;stroke-dasharray:none;stroke-opacity:1"
           d="M 80.201827,129.06402 H 74.104006"
           id="path4839"
           inkscape:connector-curvature="0" />
        <path
           inkscape:connector-curvature="0"
           id="path4841"
           d="M 80.201827,133.13405 H 68.006184"
           style="fill:none;stroke:#000000;stroke-width:0.79374999;stroke-linecap:butt;stroke-linejoin:miter;stroke-miterlimit:4;stroke-dasharray:none;stroke-opacity:1" />
      </g>
    </g>
    <path
       style="fill:none;stroke:#00b4ff;stroke-width:1.05833328;stroke-linecap:butt;stroke-linejoin:miter;stroke-miterlimit:4;stroke-dasharray:none;stroke-opacity:1"
       d="m 80.201827,147.845 c 9.095047,-1.74018 35.605913,-1.40029 49.609373,7.76828 10.52244,6.88942 10.78509,23.55829 20.25716,31.83269 16.11332,14.07591 36.90155,26.36056 58.29101,26.87174 6.98399,0.16691 19.43034,-7.85482 19.43034,-7.85482"
       id="path4847"
       inkscape:connector-curvature="0"
       sodipodi:nodetypes="caaac" />
    <path
       style="fill:none;stroke:#ff0e03;stroke-width:1.05833333;stroke-linecap:butt;stroke-linejoin:miter;stroke-opacity:1;stroke-miterlimit:4;stroke-dasharray:none"
       d="m 88.470051,239.53581 c 2.480469,-2.06706 12.678319,-6.07227 19.430339,-5.78776 7.54239,0.31781 13.74123,6.51533 21.08398,8.26823 16.96513,4.05001 35.05125,8.68978 52.08985,4.96094 17.43236,-3.81501 46.30208,-26.87175 46.30208,-26.87175"
       id="path4849"
       inkscape:connector-curvature="0"
       sodipodi:nodetypes="csaac" />
    <rect
       style="fill:none;stroke:#00ff06;stroke-width:0.52916667;stroke-miterlimit:4;stroke-dasharray:none;stroke-opacity:1"
       id="rect4851"
       width="32.155865"
       height="16.077932"
       x="194.10449"
       y="120.43507" />
    <path
       style="fill:none;stroke:#00b4ff;stroke-width:1.05833333;stroke-linecap:butt;stroke-linejoin:miter;stroke-opacity:1;stroke-miterlimit:4;stroke-dasharray:none"
       d="m 196.37002,124.30839 c 6.7235,0 6.7235,0 6.7235,0"
       id="path4853"
       inkscape:connector-curvature="0" />
    <path
       inkscape:connector-curvature="0"
       id="path4855"
       d="m 196.37002,132.42044 c 6.7235,0 6.7235,0 6.7235,0"
       style="fill:none;stroke:#ff0e03;stroke-width:1.05833333;stroke-linecap:butt;stroke-linejoin:miter;stroke-opacity:1;stroke-miterlimit:4;stroke-dasharray:none" />
    <text
       xml:space="preserve"
       style="font-style:normal;font-weight:normal;font-size:5.54990012px;line-height:1.25;font-family:Amiri;letter-spacing:0px;word-spacing:0px;fill:#000000;fill-opacity:1;stroke:none;stroke-width:0.13874777;-inkscape-font-specification:'Amiri, Normal';font-stretch:normal;font-variant:normal;text-anchor:start;text-align:start;writing-mode:lr;font-variant-ligatures:normal;font-variant-caps:normal;font-variant-numeric:normal;font-feature-settings:normal;"
       x="204.83649"
       y="126.57407"
       id="text4859"><tspan
         sodipodi:role="line"
         id="tspan4857"
         x="204.83649"
         y="126.57407"
         style="stroke-width:0.13874777;-inkscape-font-specification:'Amiri, Normal';font-family:Amiri;font-weight:normal;font-style:normal;font-stretch:normal;font-variant:normal;font-size:5.54990012px;text-anchor:start;text-align:start;writing-mode:lr;font-variant-ligatures:normal;font-variant-caps:normal;font-variant-numeric:normal;font-feature-settings:normal;">tipo 1</tspan></text>
    <text
       id="text4863"
       y="133.29466"
       x="204.83649"
       style="font-style:normal;font-weight:normal;font-size:5.54990012px;line-height:1.25;font-family:Amiri;letter-spacing:0px;word-spacing:0px;fill:#000000;fill-opacity:1;stroke:none;stroke-width:0.13874777;-inkscape-font-specification:'Amiri, Normal';font-stretch:normal;font-variant:normal;text-anchor:start;text-align:start;writing-mode:lr;font-variant-ligatures:normal;font-variant-caps:normal;font-variant-numeric:normal;font-feature-settings:normal;"
       xml:space="preserve"><tspan
         style="stroke-width:0.13874777;-inkscape-font-specification:'Amiri, Normal';font-family:Amiri;font-weight:normal;font-style:normal;font-stretch:normal;font-variant:normal;font-size:5.54990012px;text-anchor:start;text-align:start;writing-mode:lr;font-variant-ligatures:normal;font-variant-caps:normal;font-variant-numeric:normal;font-feature-settings:normal;"
         y="133.29466"
         x="204.83649"
         id="tspan4861"
         sodipodi:role="line">tipo 2</tspan></text>
    <text
       xml:space="preserve"
       style="font-style:normal;font-weight:normal;font-size:10.58333333px;line-height:1.25;font-family:Amiri;letter-spacing:0px;word-spacing:0px;fill:#000000;fill-opacity:1;stroke:none;stroke-width:0.26458332;-inkscape-font-specification:'Amiri, Normal';font-stretch:normal;font-variant:normal;text-anchor:start;text-align:start;writing-mode:lr;font-variant-ligatures:normal;font-variant-caps:normal;font-variant-numeric:normal;font-feature-settings:normal;"
       x="123.36159"
       y="292.28625"
       id="text4867"><tspan
         sodipodi:role="line"
         id="tspan4865"
         x="123.36159"
         y="292.28625"
         style="stroke-width:0.26458332;-inkscape-font-specification:'Amiri, Normal';font-family:Amiri;font-weight:normal;font-style:normal;font-stretch:normal;font-variant:normal;font-size:10.58333333px;text-anchor:start;text-align:start;writing-mode:lr;font-variant-ligatures:normal;font-variant-caps:normal;font-variant-numeric:normal;font-feature-settings:normal;">Tiempo [s]</tspan></text>
    <text
       id="text4871"
       y="125.07576"
       x="45.895187"
       style="font-style:normal;font-weight:normal;font-size:10.58333333px;line-height:1.25;font-family:Amiri;letter-spacing:0px;word-spacing:0px;writing-mode:vertical-lr;text-orientation:upright;fill:#000000;fill-opacity:1;stroke:none;stroke-width:0.26458332;-inkscape-font-specification:'Amiri, Normal';font-stretch:normal;font-variant:normal;text-anchor:start;text-align:start;font-variant-ligatures:normal;font-variant-caps:normal;font-variant-numeric:normal;font-feature-settings:normal;"
       xml:space="preserve"><tspan
         style="writing-mode:vertical-lr;text-orientation:upright;stroke-width:0.26458332;-inkscape-font-specification:'Amiri, Normal';font-family:Amiri;font-weight:normal;font-style:normal;font-stretch:normal;font-variant:normal;font-size:10.58333333px;text-anchor:start;text-align:start;font-variant-ligatures:normal;font-variant-caps:normal;font-variant-numeric:normal;font-feature-settings:normal;"
         y="20.755146"
         x="150.21581"
         sodipodi:role="line"
         id="tspan4873">Temperatura</tspan></text>
    <text
       xml:space="preserve"
       style="font-style:normal;font-weight:normal;font-size:10.58333333px;line-height:1.25;font-family:Amiri;letter-spacing:0px;word-spacing:0px;fill:#000000;fill-opacity:1;stroke:none;stroke-width:0.26458332;-inkscape-font-specification:'Amiri, Normal';font-stretch:normal;font-variant:normal;text-anchor:start;text-align:start;writing-mode:lr;font-variant-ligatures:normal;font-variant-caps:normal;font-variant-numeric:normal;font-feature-settings:normal;"
       x="36.540756"
       y="253.44342"
       id="text4879"><tspan
         sodipodi:role="line"
         id="tspan4877"
         x="36.540756"
         y="253.44342"
         style="stroke-width:0.26458332;-inkscape-font-specification:'Amiri, Normal';font-family:Amiri;font-weight:normal;font-style:normal;font-stretch:normal;font-variant:normal;font-size:10.58333333px;text-anchor:start;text-align:start;writing-mode:lr;font-variant-ligatures:normal;font-variant-caps:normal;font-variant-numeric:normal;font-feature-settings:normal;">[°C]</tspan></text>
  </g>
</svg>
