<?xml version="1.0" encoding="UTF-8" standalone="no"?>
<!-- Created with Inkscape (http://www.inkscape.org/) -->

<svg
   xmlns:dc="http://purl.org/dc/elements/1.1/"
   xmlns:cc="http://creativecommons.org/ns#"
   xmlns:rdf="http://www.w3.org/1999/02/22-rdf-syntax-ns#"
   xmlns:svg="http://www.w3.org/2000/svg"
   xmlns="http://www.w3.org/2000/svg"
   xmlns:sodipodi="http://sodipodi.sourceforge.net/DTD/sodipodi-0.dtd"
   xmlns:inkscape="http://www.inkscape.org/namespaces/inkscape"
   width="180.51965mm"
   height="137.14507mm"
   viewBox="0 0 180.51965 137.14507"
   version="1.1"
   id="svg8"
   inkscape:version="0.92.1 r15371"
   sodipodi:docname="funcion_awk.svg"
   inkscape:export-filename="/home/david/Proyectos/Presentaciones_CursoProgramacionOOCC/15_awk_scan_text_03/img/funcion_awk.png"
   inkscape:export-xdpi="95"
   inkscape:export-ydpi="95">
  <defs
     id="defs2" />
  <sodipodi:namedview
     id="base"
     pagecolor="#ffffff"
     bordercolor="#666666"
     borderopacity="1.0"
     inkscape:pageopacity="0.0"
     inkscape:pageshadow="2"
     inkscape:zoom="0.47341335"
     inkscape:cx="397.86198"
     inkscape:cy="353.84108"
     inkscape:document-units="mm"
     inkscape:current-layer="layer1"
     showgrid="false"
     inkscape:window-width="1366"
     inkscape:window-height="709"
     inkscape:window-x="0"
     inkscape:window-y="0"
     inkscape:window-maximized="1"
     fit-margin-top="0"
     fit-margin-left="0"
     fit-margin-right="0"
     fit-margin-bottom="0" />
  <metadata
     id="metadata5">
    <rdf:RDF>
      <cc:Work
         rdf:about="">
        <dc:format>image/svg+xml</dc:format>
        <dc:type
           rdf:resource="http://purl.org/dc/dcmitype/StillImage" />
        <dc:title></dc:title>
      </cc:Work>
    </rdf:RDF>
  </metadata>
  <g
     inkscape:label="Capa 1"
     inkscape:groupmode="layer"
     id="layer1"
     transform="translate(-13.782327,-6.8795755)">
    <rect
       ry="11.130194"
       y="17.617596"
       x="96.466393"
       height="126.40705"
       width="97.835594"
       id="rect920"
       style="opacity:1;fill:#fffdba;fill-opacity:1;stroke:none;stroke-width:1.43737185;stroke-miterlimit:4;stroke-dasharray:none;stroke-dashoffset:0;stroke-opacity:1" />
    <rect
       style="opacity:1;fill:#d1ffba;fill-opacity:1;stroke:none;stroke-width:0.81976414;stroke-miterlimit:4;stroke-dasharray:none;stroke-dashoffset:0;stroke-opacity:1"
       id="rect918"
       width="58.441616"
       height="68.831238"
       x="13.782327"
       y="47.487755"
       ry="6.0606189" />
    <path
       style="opacity:1;fill:#800080;fill-opacity:1;stroke:none;stroke-width:0.81976414;stroke-miterlimit:4;stroke-dasharray:none;stroke-dashoffset:0;stroke-opacity:1"
       d="M 27.418638,56.578706 A 11.904774,11.904774 0 0 0 15.514045,68.483299 11.904774,11.904774 0 0 0 27.418638,80.388292 11.904774,11.904774 0 0 0 37.64968,74.543869 h -6.334761 c -3.357579,0 -6.060569,-2.702992 -6.060569,-6.06057 0,-3.357579 2.70299,-6.060571 6.060569,-6.060571 h 6.334359 a 11.904774,11.904774 0 0 0 -10.23064,-5.844022 z"
       id="path10"
       inkscape:connector-curvature="0" />
    <path
       style="opacity:1;fill:#ffd600;fill-opacity:1;stroke:none;stroke-width:0.81976414;stroke-miterlimit:4;stroke-dasharray:none;stroke-dashoffset:0;stroke-opacity:1"
       d="M 27.418638,82.76917 A 11.904774,11.904774 0 0 0 15.514045,94.673768 11.904774,11.904774 0 0 0 27.418638,106.57876 11.904774,11.904774 0 0 0 37.64968,100.73473 h -6.334761 c -3.357579,0 -6.060569,-2.703381 -6.060569,-6.060962 0,-3.357585 2.70299,-6.060576 6.060569,-6.060576 h 6.334359 A 11.904774,11.904774 0 0 0 27.418638,82.76917 Z"
       id="circle12"
       inkscape:connector-curvature="0" />
    <text
       xml:space="preserve"
       style="font-style:normal;font-weight:normal;font-size:8.19764137px;line-height:1.25;font-family:sans-serif;letter-spacing:0px;word-spacing:0px;fill:#000000;fill-opacity:1;stroke:none;stroke-width:0.20494103"
       x="29.36676"
       y="71.539604"
       id="text824"><tspan
         sodipodi:role="line"
         id="tspan822"
         x="29.36676"
         y="71.539604"
         style="stroke-width:0.20494103">funcion1</tspan></text>
    <text
       xml:space="preserve"
       style="font-style:normal;font-weight:normal;font-size:8.19764137px;line-height:1.25;font-family:sans-serif;letter-spacing:0px;word-spacing:0px;fill:#000000;fill-opacity:1;stroke:none;stroke-width:0.20494103"
       x="29.36676"
       y="97.894188"
       id="text828"><tspan
         sodipodi:role="line"
         id="tspan826"
         x="29.36676"
         y="97.894188"
         style="stroke-width:0.20494103">función2</tspan></text>
    <text
       xml:space="preserve"
       style="font-style:normal;font-weight:normal;font-size:29.02298164px;line-height:1.25;font-family:sans-serif;letter-spacing:0px;word-spacing:0px;fill:#000000;fill-opacity:1;stroke:none;stroke-width:0.72557455"
       x="102.40873"
       y="44.443092"
       id="text838"><tspan
         sodipodi:role="line"
         x="102.40873"
         y="44.443092"
         style="stroke-width:0.72557455"
         id="tspan850">{</tspan></text>
    <text
       id="text904"
       y="135.26389"
       x="-120.87405"
       style="font-style:normal;font-weight:normal;font-size:29.02298164px;line-height:1.25;font-family:sans-serif;letter-spacing:0px;word-spacing:0px;fill:#000000;fill-opacity:1;stroke:none;stroke-width:0.72557455"
       xml:space="preserve"
       transform="scale(-1,1)"><tspan
         id="tspan902"
         style="stroke-width:0.72557455"
         y="135.26389"
         x="-120.87405"
         sodipodi:role="line">{</tspan></text>
    <text
       xml:space="preserve"
       style="font-style:normal;font-weight:normal;font-size:8.19764137px;line-height:1.25;font-family:sans-serif;letter-spacing:0px;word-spacing:0px;fill:#000000;fill-opacity:1;stroke:none;stroke-width:0.20494103"
       x="106.42312"
       y="63.937988"
       id="text908"><tspan
         sodipodi:role="line"
         id="tspan906"
         x="106.42312"
         y="63.937988"
         style="stroke-width:0.20494103">acción 1;</tspan><tspan
         sodipodi:role="line"
         x="106.42312"
         y="74.185043"
         style="stroke-width:0.20494103"
         id="tspan910">acción 2;</tspan><tspan
         sodipodi:role="line"
         x="106.42312"
         y="84.432091"
         style="stroke-width:0.20494103"
         id="tspan912">f1=funcion1(input1);</tspan><tspan
         sodipodi:role="line"
         x="106.42312"
         y="94.679146"
         style="stroke-width:0.20494103"
         id="tspan914">acción 3;</tspan><tspan
         sodipodi:role="line"
         x="106.42312"
         y="104.92619"
         style="stroke-width:0.20494103"
         id="tspan916">f2=funcion2(input2);</tspan></text>
    <text
       xml:space="preserve"
       style="font-style:normal;font-weight:normal;font-size:8.19764137px;line-height:1.25;font-family:sans-serif;letter-spacing:0px;word-spacing:0px;fill:#0000ff;fill-opacity:1;stroke:none;stroke-width:0.20494103;"
       x="20.70874"
       y="40.994244"
       id="text924"><tspan
         sodipodi:role="line"
         id="tspan922"
         x="20.70874"
         y="40.994244"
         style="stroke-width:0.20494103;fill:#0000ff;">funciones</tspan></text>
    <text
       xml:space="preserve"
       style="font-style:normal;font-weight:normal;font-size:8.19764137px;line-height:1.25;font-family:sans-serif;letter-spacing:0px;word-spacing:0px;fill:#ff0000;fill-opacity:1;stroke:none;stroke-width:0.20494103;"
       x="126.76945"
       y="12.855688"
       id="text928"><tspan
         sodipodi:role="line"
         id="tspan926"
         x="126.76945"
         y="12.855688"
         style="stroke-width:0.20494103;fill:#ff0000;">Programa</tspan></text>
    <path
       style="opacity:1;fill:#ff0000;fill-opacity:1;stroke:none;stroke-width:0.81976414;stroke-miterlimit:4;stroke-dasharray:none;stroke-dashoffset:0;stroke-opacity:1"
       d="m 84.942821,72.657857 v 4.483485 H 74.171808 c -2.75801,0 -4.978227,2.220616 -4.978227,4.978626 0,2.758011 2.220217,4.978226 4.978227,4.978226 h 10.771013 v 4.483885 l 8.19444,-4.731255 8.194439,-4.730856 -8.194439,-4.731256 z"
       id="rect930"
       inkscape:connector-curvature="0" />
  </g>
</svg>
