<?xml version="1.0" encoding="UTF-8" standalone="no"?>
<!-- Created with Inkscape (http://www.inkscape.org/) -->

<svg
   xmlns:dc="http://purl.org/dc/elements/1.1/"
   xmlns:cc="http://creativecommons.org/ns#"
   xmlns:rdf="http://www.w3.org/1999/02/22-rdf-syntax-ns#"
   xmlns:svg="http://www.w3.org/2000/svg"
   xmlns="http://www.w3.org/2000/svg"
   xmlns:sodipodi="http://sodipodi.sourceforge.net/DTD/sodipodi-0.dtd"
   xmlns:inkscape="http://www.inkscape.org/namespaces/inkscape"
   width="9.1784849in"
   height="5.9772415in"
   viewBox="0 0 233.13352 151.82193"
   version="1.1"
   id="svg12998"
   inkscape:version="0.92.1 r15371"
   sodipodi:docname="matching.svg"
   inkscape:export-filename="/home/david/Documentos/4libertades/jornadas/awk, poder en terminal/matching.png"
   inkscape:export-xdpi="95"
   inkscape:export-ydpi="95">
  <defs
     id="defs12992" />
  <sodipodi:namedview
     id="base"
     pagecolor="#ffffff"
     bordercolor="#666666"
     borderopacity="1.0"
     inkscape:pageopacity="0.0"
     inkscape:pageshadow="2"
     inkscape:zoom="0.49497475"
     inkscape:cx="259.74501"
     inkscape:cy="394.44486"
     inkscape:document-units="mm"
     inkscape:current-layer="layer1"
     showgrid="false"
     fit-margin-top="0"
     fit-margin-left="0"
     fit-margin-right="-0.3"
     fit-margin-bottom="0"
     units="in"
     inkscape:window-width="1366"
     inkscape:window-height="709"
     inkscape:window-x="0"
     inkscape:window-y="0"
     inkscape:window-maximized="1" />
  <metadata
     id="metadata12995">
    <rdf:RDF>
      <cc:Work
         rdf:about="">
        <dc:format>image/svg+xml</dc:format>
        <dc:type
           rdf:resource="http://purl.org/dc/dcmitype/StillImage" />
        <dc:title></dc:title>
      </cc:Work>
    </rdf:RDF>
  </metadata>
  <g
     inkscape:label="Capa 1"
     inkscape:groupmode="layer"
     id="layer1"
     transform="translate(-25.919475,-131.37848)">
    <text
       xml:space="preserve"
       style="font-style:normal;font-weight:normal;font-size:7.79808807px;line-height:1.25;font-family:sans-serif;letter-spacing:0px;word-spacing:0px;fill:#ff0000;fill-opacity:1;stroke:none;stroke-width:0.19495219"
       x="34.650826"
       y="200.54512"
       id="text13002"><tspan
         sodipodi:role="line"
         id="tspan13000"
         x="34.650826"
         y="200.54512"
         style="fill:#ff0000;stroke-width:0.19495219">cat archivo | awk -F',' '(match($2,/Europa/)){print $0}'</tspan></text>
    <text
       xml:space="preserve"
       style="font-style:normal;font-weight:normal;font-size:8.54661465px;line-height:1.25;font-family:sans-serif;letter-spacing:0px;word-spacing:0px;fill:#000000;fill-opacity:1;stroke:none;stroke-width:0.21366537"
       x="30.793299"
       y="156.90759"
       id="text13006"><tspan
         sodipodi:role="line"
         id="tspan13004"
         x="30.793299"
         y="156.90759"
         style="stroke-width:0.21366537">Usando la función <tspan
   style="fill:#0000ff;stroke-width:0.21366537"
   id="tspan13008"></tspan></tspan><tspan
         sodipodi:role="line"
         x="30.793299"
         y="167.59087"
         style="stroke-width:0.21366537"
         id="tspan13112"><tspan
           style="fill:#0000ff;stroke-width:0.21366537"
           id="tspan13114">match</tspan></tspan></text>
    <text
       xml:space="preserve"
       style="font-style:normal;font-weight:normal;font-size:35.41666794px;line-height:1.25;font-family:sans-serif;letter-spacing:0px;word-spacing:0px;fill:#000000;fill-opacity:1;stroke:none;stroke-width:0.88541675"
       x="134.37199"
       y="165.34537"
       id="text13012"><tspan
         sodipodi:role="line"
         id="tspan13010"
         x="134.37199"
         y="165.34537"
         style="stroke-width:0.88541675">{</tspan></text>
    <text
       xml:space="preserve"
       style="font-style:normal;font-weight:normal;font-size:8.54661465px;line-height:1.25;font-family:sans-serif;letter-spacing:0px;word-spacing:0px;fill:#000000;fill-opacity:1;stroke:none;stroke-width:0.21366537"
       x="153.8432"
       y="142.04675"
       id="text13016"><tspan
         sodipodi:role="line"
         id="tspan13014"
         x="153.8432"
         y="142.04675"
         style="stroke-width:0.21366537">0  o False </tspan><tspan
         sodipodi:role="line"
         x="153.8432"
         y="152.73003"
         style="stroke-width:0.21366537"
         id="tspan13022">(si no hay coincidencia)</tspan></text>
    <text
       xml:space="preserve"
       style="font-style:normal;font-weight:normal;font-size:8.54661465px;line-height:1.25;font-family:sans-serif;letter-spacing:0px;word-spacing:0px;fill:#000000;fill-opacity:1;stroke:none;stroke-width:0.21366537"
       x="153.81252"
       y="172.77986"
       id="text13020"><tspan
         sodipodi:role="line"
         id="tspan13018"
         x="153.81252"
         y="172.77986"
         style="stroke-width:0.21366537">1 o True </tspan><tspan
         sodipodi:role="line"
         x="153.81252"
         y="183.46313"
         style="stroke-width:0.21366537"
         id="tspan13024">(si hay coincidencia)</tspan></text>
    <text
       id="text13030"
       y="220.8941"
       x="30.793299"
       style="font-style:normal;font-weight:normal;font-size:8.54661465px;line-height:1.25;font-family:sans-serif;letter-spacing:0px;word-spacing:0px;fill:#000000;fill-opacity:1;stroke:none;stroke-width:0.21366537"
       xml:space="preserve"><tspan
         style="stroke-width:0.21366537"
         y="220.8941"
         x="30.793299"
         id="tspan13028"
         sodipodi:role="line">Usando la expresión </tspan><tspan
         style="stroke-width:0.21366537"
         y="231.57738"
         x="30.793299"
         sodipodi:role="line"
         id="tspan13048">comparadora </tspan></text>
    <text
       id="text13034"
       y="238.35358"
       x="134.37199"
       style="font-style:normal;font-weight:normal;font-size:35.41666794px;line-height:1.25;font-family:sans-serif;letter-spacing:0px;word-spacing:0px;fill:#000000;fill-opacity:1;stroke:none;stroke-width:0.88541675"
       xml:space="preserve"><tspan
         style="stroke-width:0.88541675"
         y="238.35358"
         x="134.37199"
         id="tspan13032"
         sodipodi:role="line">{</tspan></text>
    <text
       id="text13040"
       y="215.05496"
       x="153.8432"
       style="font-style:normal;font-weight:normal;font-size:8.54661465px;line-height:1.25;font-family:sans-serif;letter-spacing:0px;word-spacing:0px;fill:#000000;fill-opacity:1;stroke:none;stroke-width:0.21366537"
       xml:space="preserve"><tspan
         style="stroke-width:0.21366537"
         y="215.05496"
         x="153.8432"
         id="tspan13036"
         sodipodi:role="line">0  o False </tspan><tspan
         id="tspan13038"
         style="stroke-width:0.21366537"
         y="225.73824"
         x="153.8432"
         sodipodi:role="line">(si no hay coincidencia)</tspan></text>
    <text
       id="text13046"
       y="245.78807"
       x="153.81252"
       style="font-style:normal;font-weight:normal;font-size:8.54661465px;line-height:1.25;font-family:sans-serif;letter-spacing:0px;word-spacing:0px;fill:#000000;fill-opacity:1;stroke:none;stroke-width:0.21366537"
       xml:space="preserve"><tspan
         style="stroke-width:0.21366537"
         y="245.78807"
         x="153.81252"
         id="tspan13042"
         sodipodi:role="line">1 o True </tspan><tspan
         id="tspan13044"
         style="stroke-width:0.21366537"
         y="256.47134"
         x="153.81252"
         sodipodi:role="line">(si hay coincidencia)</tspan></text>
    <text
       xml:space="preserve"
       style="font-style:normal;font-weight:normal;font-size:6.90884304px;line-height:1.25;font-family:sans-serif;letter-spacing:0px;word-spacing:0px;fill:#0000ff;fill-opacity:1;stroke:none;stroke-width:0.1727211"
       x="101.54481"
       y="231.80049"
       id="text13052"><tspan
         sodipodi:role="line"
         id="tspan13050"
         x="101.54481"
         y="231.80049"
         style="fill:#0000ff;stroke-width:0.1727211">A~/regex/</tspan></text>
    <text
       id="text13056"
       y="274.41232"
       x="34.650826"
       style="font-style:normal;font-weight:normal;font-size:7.79808807px;line-height:1.25;font-family:sans-serif;letter-spacing:0px;word-spacing:0px;fill:#ff0000;fill-opacity:1;stroke:none;stroke-width:0.19495219"
       xml:space="preserve"><tspan
         style="fill:#ff0000;stroke-width:0.19495219"
         y="274.41232"
         x="34.650826"
         id="tspan13054"
         sodipodi:role="line">cat archivo | awk -F',' '($2 ~/Europa/){print $0}'</tspan></text>
  </g>
</svg>
