<?xml version="1.0" encoding="UTF-8" standalone="no"?>
<!-- Created with Inkscape (http://www.inkscape.org/) -->

<svg
   xmlns:dc="http://purl.org/dc/elements/1.1/"
   xmlns:cc="http://creativecommons.org/ns#"
   xmlns:rdf="http://www.w3.org/1999/02/22-rdf-syntax-ns#"
   xmlns:svg="http://www.w3.org/2000/svg"
   xmlns="http://www.w3.org/2000/svg"
   xmlns:sodipodi="http://sodipodi.sourceforge.net/DTD/sodipodi-0.dtd"
   xmlns:inkscape="http://www.inkscape.org/namespaces/inkscape"
   width="168.07242mm"
   height="36.996246mm"
   viewBox="0 0 168.07242 36.996246"
   version="1.1"
   id="svg8"
   inkscape:version="0.92.1 r15371"
   sodipodi:docname="permisos.svg">
  <defs
     id="defs2" />
  <sodipodi:namedview
     id="base"
     pagecolor="#ffffff"
     bordercolor="#666666"
     borderopacity="1.0"
     inkscape:pageopacity="0.0"
     inkscape:pageshadow="2"
     inkscape:zoom="0.97641503"
     inkscape:cx="357.41451"
     inkscape:cy="5.9190534"
     inkscape:document-units="mm"
     inkscape:current-layer="layer1"
     showgrid="false"
     fit-margin-top="0"
     fit-margin-left="0"
     fit-margin-right="0"
     fit-margin-bottom="0"
     inkscape:window-width="1366"
     inkscape:window-height="709"
     inkscape:window-x="0"
     inkscape:window-y="0"
     inkscape:window-maximized="1" />
  <metadata
     id="metadata5">
    <rdf:RDF>
      <cc:Work
         rdf:about="">
        <dc:format>image/svg+xml</dc:format>
        <dc:type
           rdf:resource="http://purl.org/dc/dcmitype/StillImage" />
        <dc:title></dc:title>
      </cc:Work>
    </rdf:RDF>
  </metadata>
  <g
     inkscape:label="Capa 1"
     inkscape:groupmode="layer"
     id="layer1"
     transform="translate(-18.978286,-108.63364)">
    <rect
       y="108.63364"
       x="127.51466"
       height="9.2131252"
       width="16.928885"
       id="rect839"
       style="opacity:1;fill:#82ddd9;fill-opacity:1;stroke:none;stroke-width:0.09813814;stroke-miterlimit:4;stroke-dasharray:0.09813814, 0.39255255;stroke-dashoffset:0;stroke-opacity:1" />
    <rect
       style="opacity:1;fill:#82ddd9;fill-opacity:1;stroke:none;stroke-width:0.12929286;stroke-miterlimit:4;stroke-dasharray:0.12929287, 0.51717148;stroke-dashoffset:0;stroke-opacity:1"
       id="rect841"
       width="29.383387"
       height="9.2131252"
       x="95.736183"
       y="108.63364" />
    <rect
       y="108.63364"
       x="56.715889"
       height="9.2131252"
       width="36.022255"
       id="rect843"
       style="opacity:1;fill:#82ddd9;fill-opacity:1;stroke:none;stroke-width:0.14315584;stroke-miterlimit:4;stroke-dasharray:0.14315585, 0.5726234;stroke-dashoffset:0;stroke-opacity:1" />
    <rect
       style="opacity:1;fill:#ff6b78;fill-opacity:1;stroke:none;stroke-width:0.17042167;stroke-miterlimit:4;stroke-dasharray:0.17042168, 0.68168672;stroke-dashoffset:0;stroke-opacity:1"
       id="rect825"
       width="16.928885"
       height="27.783121"
       x="127.51466"
       y="117.84676" />
    <rect
       y="117.84676"
       x="95.736183"
       height="27.783121"
       width="29.383387"
       id="rect823"
       style="opacity:1;fill:#ffd66b;fill-opacity:1;stroke:none;stroke-width:0.22452338;stroke-miterlimit:4;stroke-dasharray:0.22452339, 0.89809358;stroke-dashoffset:0;stroke-opacity:1" />
    <rect
       style="opacity:1;fill:#6bff6b;fill-opacity:1;stroke:none;stroke-width:0.24859713;stroke-miterlimit:4;stroke-dasharray:0.24859714, 0.99438856;stroke-dashoffset:0;stroke-opacity:1"
       id="rect16"
       width="36.022255"
       height="27.783121"
       x="56.715889"
       y="117.84676" />
    <text
       xml:space="preserve"
       style="font-style:normal;font-weight:normal;font-size:10.58333302px;line-height:1.25;font-family:sans-serif;letter-spacing:0px;word-spacing:0px;fill:#000000;fill-opacity:1;stroke:none;stroke-width:0.26458332"
       x="18.394342"
       y="128.00198"
       id="text12"><tspan
         sodipodi:role="line"
         id="tspan10"
         x="18.394342"
         y="128.00198"
         style="stroke-width:0.26458332">chmod u=rwx,g=rw,o= archivo</tspan><tspan
         sodipodi:role="line"
         x="18.394342"
         y="141.23116"
         style="stroke-width:0.26458332"
         id="tspan14">chmod 7         5        0    archivo</tspan></text>
    <text
       xml:space="preserve"
       style="font-style:normal;font-weight:normal;font-size:5.68151999px;line-height:1.25;font-family:sans-serif;letter-spacing:0px;word-spacing:0px;fill:#0046c9;fill-opacity:1;stroke:none;stroke-width:0.14203799"
       x="63.598869"
       y="115.26489"
       id="text829"><tspan
         sodipodi:role="line"
         id="tspan827"
         x="63.598869"
         y="115.26489"
         style="fill:#0046c9;fill-opacity:1;stroke-width:0.14203799">usuario</tspan></text>
    <text
       id="text833"
       y="115.26489"
       x="100.31588"
       style="font-style:normal;font-weight:normal;font-size:5.68151999px;line-height:1.25;font-family:sans-serif;letter-spacing:0px;word-spacing:0px;fill:#0046c9;fill-opacity:1;stroke:none;stroke-width:0.14203799"
       xml:space="preserve"><tspan
         style="fill:#0046c9;fill-opacity:1;stroke-width:0.14203799"
         y="115.26489"
         x="100.31588"
         id="tspan831"
         sodipodi:role="line">grupo</tspan></text>
    <text
       xml:space="preserve"
       style="font-style:normal;font-weight:normal;font-size:5.68151999px;line-height:1.25;font-family:sans-serif;letter-spacing:0px;word-spacing:0px;fill:#0046c9;fill-opacity:1;stroke:none;stroke-width:0.14203799"
       x="129.5811"
       y="115.26489"
       id="text837"><tspan
         sodipodi:role="line"
         id="tspan835"
         x="129.5811"
         y="115.26489"
         style="fill:#0046c9;fill-opacity:1;stroke-width:0.14203799">otros</tspan></text>
  </g>
</svg>
